15_my_logic_one_hot/one_hot.vcd
$date
  Mon Aug 23 20:37:38 2021
$end
$version
  GHDL v0
$end
$timescale
  1 fs
$end
$scope module standard $end
$upscope $end
$scope module std_logic_1164 $end
$upscope $end
$scope module tb_one_hot $end
$var reg 2 ! a_in[1:0] $end
$var reg 6 " sel_in[5:0] $end
$var reg 1 # y_out $end
$scope module dut $end
$var reg 2 $ a[1:0] $end
$var reg 6 % sel[5:0] $end
$var reg 1 & y $end
$upscope $end
$upscope $end
$enddefinitions $end
#0
bXX !
b000000 "
U#
bXX $
b000000 %
U&
#1000000
b000001 "
X#
b000001 %
X&
#2000000
b000010 "
b000010 %
#3000000
b000011 "
Z#
b000011 %
Z&
#4000000
b000100 "
X#
b000100 %
X&
#5000000
b000101 "
Z#
b000101 %
Z&
#6000000
b000110 "
b000110 %
#7000000
b000111 "
b000111 %
#8000000
b001000 "
X#
b001000 %
X&
#9000000
b001001 "
Z#
b001001 %
Z&
#10000000
b001010 "
b001010 %
#11000000
b001011 "
b001011 %
#12000000
b001100 "
b001100 %
#13000000
b001101 "
b001101 %
#14000000
b001110 "
b001110 %
#15000000
b001111 "
b001111 %
#16000000
b010000 "
X#
b010000 %
X&
#17000000
b010001 "
Z#
b010001 %
Z&
#18000000
b010010 "
b010010 %
#19000000
b010011 "
b010011 %
#20000000
b010100 "
b010100 %
#21000000
b010101 "
b010101 %
#22000000
b010110 "
b010110 %
#23000000
b010111 "
b010111 %
#24000000
b011000 "
b011000 %
#25000000
b011001 "
b011001 %
#26000000
b011010 "
b011010 %
#27000000
b011011 "
b011011 %
#28000000
b011100 "
b011100 %
#29000000
b011101 "
b011101 %
#30000000
b011110 "
b011110 %
#31000000
b011111 "
b011111 %
#32000000
b100000 "
X#
b100000 %
X&
#33000000
b100001 "
Z#
b100001 %
Z&
#34000000
b100010 "
b100010 %
#35000000
b100011 "
b100011 %
#36000000
b100100 "
b100100 %
#37000000
b100101 "
b100101 %
#38000000
b100110 "
b100110 %
#39000000
b100111 "
b100111 %
#40000000
b101000 "
b101000 %
#41000000
b101001 "
b101001 %
#42000000
b101010 "
b101010 %
#43000000
b101011 "
b101011 %
#44000000
b101100 "
b101100 %
#45000000
b101101 "
b101101 %
#46000000
b101110 "
b101110 %
#47000000
b101111 "
b101111 %
#48000000
b110000 "
b110000 %
#49000000
b110001 "
b110001 %
#50000000
b110010 "
b110010 %
#51000000
b110011 "
b110011 %
#52000000
b110100 "
b110100 %
#53000000
b110101 "
b110101 %
#54000000
b110110 "
b110110 %
#55000000
b110111 "
b110111 %
#56000000
b111000 "
b111000 %
#57000000
b111001 "
b111001 %
#58000000
b111010 "
b111010 %
#59000000
b111011 "
b111011 %
#60000000
b111100 "
b111100 %
#61000000
b111101 "
b111101 %
#62000000
b111110 "
b111110 %
#63000000
b111111 "
b111111 %
#64000000
b00 !
b000000 "
b00 $
b000000 %
#65000000
b000001 "
0#
b000001 %
0&
#66000000
b000010 "
1#
b000010 %
1&
#67000000
b000011 "
Z#
b000011 %
Z&
#68000000
b000100 "
0#
b000100 %
0&
#69000000
b000101 "
Z#
b000101 %
Z&
#70000000
b000110 "
b000110 %
#71000000
b000111 "
b000111 %
#72000000
b001000 "
1#
b001000 %
1&
#73000000
b001001 "
Z#
b001001 %
Z&
#74000000
b001010 "
b001010 %
#75000000
b001011 "
b001011 %
#76000000
b001100 "
b001100 %
#77000000
b001101 "
b001101 %
#78000000
b001110 "
b001110 %
#79000000
b001111 "
b001111 %
#80000000
b010000 "
0#
b010000 %
0&
#81000000
b010001 "
Z#
b010001 %
Z&
#82000000
b010010 "
b010010 %
#83000000
b010011 "
b010011 %
#84000000
b010100 "
b010100 %
#85000000
b010101 "
b010101 %
#86000000
b010110 "
b010110 %
#87000000
b010111 "
b010111 %
#88000000
b011000 "
b011000 %
#89000000
b011001 "
b011001 %
#90000000
b011010 "
b011010 %
#91000000
b011011 "
b011011 %
#92000000
b011100 "
b011100 %
#93000000
b011101 "
b011101 %
#94000000
b011110 "
b011110 %
#95000000
b011111 "
b011111 %
#96000000
b100000 "
1#
b100000 %
1&
#97000000
b100001 "
Z#
b100001 %
Z&
#98000000
b100010 "
b100010 %
#99000000
b100011 "
b100011 %
#100000000
b100100 "
b100100 %
#101000000
b100101 "
b100101 %
#102000000
b100110 "
b100110 %
#103000000
b100111 "
b100111 %
#104000000
b101000 "
b101000 %
#105000000
b101001 "
b101001 %
#106000000
b101010 "
b101010 %
#107000000
b101011 "
b101011 %
#108000000
b101100 "
b101100 %
#109000000
b101101 "
b101101 %
#110000000
b101110 "
b101110 %
#111000000
b101111 "
b101111 %
#112000000
b110000 "
b110000 %
#113000000
b110001 "
b110001 %
#114000000
b110010 "
b110010 %
#115000000
b110011 "
b110011 %
#116000000
b110100 "
b110100 %
#117000000
b110101 "
b110101 %
#118000000
b110110 "
b110110 %
#119000000
b110111 "
b110111 %
#120000000
b111000 "
b111000 %
#121000000
b111001 "
b111001 %
#122000000
b111010 "
b111010 %
#123000000
b111011 "
b111011 %
#124000000
b111100 "
b111100 %
#125000000
b111101 "
b111101 %
#126000000
b111110 "
b111110 %
#127000000
b111111 "
b111111 %
#128000000
b01 !
b000000 "
b01 $
b000000 %
#129000000
b000001 "
0#
b000001 %
0&
#130000000
b000010 "
1#
b000010 %
1&
#131000000
b000011 "
Z#
b000011 %
Z&
#132000000
b000100 "
1#
b000100 %
1&
#133000000
b000101 "
Z#
b000101 %
Z&
#134000000
b000110 "
b000110 %
#135000000
b000111 "
b000111 %
#136000000
b001000 "
0#
b001000 %
0&
#137000000
b001001 "
Z#
b001001 %
Z&
#138000000
b001010 "
b001010 %
#139000000
b001011 "
b001011 %
#140000000
b001100 "
b001100 %
#141000000
b001101 "
b001101 %
#142000000
b001110 "
b001110 %
#143000000
b001111 "
b001111 %
#144000000
b010000 "
1#
b010000 %
1&
#145000000
b010001 "
Z#
b010001 %
Z&
#146000000
b010010 "
b010010 %
#147000000
b010011 "
b010011 %
#148000000
b010100 "
b010100 %
#149000000
b010101 "
b010101 %
#150000000
b010110 "
b010110 %
#151000000
b010111 "
b010111 %
#152000000
b011000 "
b011000 %
#153000000
b011001 "
b011001 %
#154000000
b011010 "
b011010 %
#155000000
b011011 "
b011011 %
#156000000
b011100 "
b011100 %
#157000000
b011101 "
b011101 %
#158000000
b011110 "
b011110 %
#159000000
b011111 "
b011111 %
#160000000
b100000 "
0#
b100000 %
0&
#161000000
b100001 "
Z#
b100001 %
Z&
#162000000
b100010 "
b100010 %
#163000000
b100011 "
b100011 %
#164000000
b100100 "
b100100 %
#165000000
b100101 "
b100101 %
#166000000
b100110 "
b100110 %
#167000000
b100111 "
b100111 %
#168000000
b101000 "
b101000 %
#169000000
b101001 "
b101001 %
#170000000
b101010 "
b101010 %
#171000000
b101011 "
b101011 %
#172000000
b101100 "
b101100 %
#173000000
b101101 "
b101101 %
#174000000
b101110 "
b101110 %
#175000000
b101111 "
b101111 %
#176000000
b110000 "
b110000 %
#177000000
b110001 "
b110001 %
#178000000
b110010 "
b110010 %
#179000000
b110011 "
b110011 %
#180000000
b110100 "
b110100 %
#181000000
b110101 "
b110101 %
#182000000
b110110 "
b110110 %
#183000000
b110111 "
b110111 %
#184000000
b111000 "
b111000 %
#185000000
b111001 "
b111001 %
#186000000
b111010 "
b111010 %
#187000000
b111011 "
b111011 %
#188000000
b111100 "
b111100 %
#189000000
b111101 "
b111101 %
#190000000
b111110 "
b111110 %
#191000000
b111111 "
b111111 %
#192000000
b10 !
b000000 "
b10 $
b000000 %
#193000000
b000001 "
0#
b000001 %
0&
#194000000
b000010 "
1#
b000010 %
1&
#195000000
b000011 "
Z#
b000011 %
Z&
#196000000
b000100 "
1#
b000100 %
1&
#197000000
b000101 "
Z#
b000101 %
Z&
#198000000
b000110 "
b000110 %
#199000000
b000111 "
b000111 %
#200000000
b001000 "
0#
b001000 %
0&
#201000000
b001001 "
Z#
b001001 %
Z&
#202000000
b001010 "
b001010 %
#203000000
b001011 "
b001011 %
#204000000
b001100 "
b001100 %
#205000000
b001101 "
b001101 %
#206000000
b001110 "
b001110 %
#207000000
b001111 "
b001111 %
#208000000
b010000 "
1#
b010000 %
1&
#209000000
b010001 "
Z#
b010001 %
Z&
#210000000
b010010 "
b010010 %
#211000000
b010011 "
b010011 %
#212000000
b010100 "
b010100 %
#213000000
b010101 "
b010101 %
#214000000
b010110 "
b010110 %
#215000000
b010111 "
b010111 %
#216000000
b011000 "
b011000 %
#217000000
b011001 "
b011001 %
#218000000
b011010 "
b011010 %
#219000000
b011011 "
b011011 %
#220000000
b011100 "
b011100 %
#221000000
b011101 "
b011101 %
#222000000
b011110 "
b011110 %
#223000000
b011111 "
b011111 %
#224000000
b100000 "
0#
b100000 %
0&
#225000000
b100001 "
Z#
b100001 %
Z&
#226000000
b100010 "
b100010 %
#227000000
b100011 "
b100011 %
#228000000
b100100 "
b100100 %
#229000000
b100101 "
b100101 %
#230000000
b100110 "
b100110 %
#231000000
b100111 "
b100111 %
#232000000
b101000 "
b101000 %
#233000000
b101001 "
b101001 %
#234000000
b101010 "
b101010 %
#235000000
b101011 "
b101011 %
#236000000
b101100 "
b101100 %
#237000000
b101101 "
b101101 %
#238000000
b101110 "
b101110 %
#239000000
b101111 "
b101111 %
#240000000
b110000 "
b110000 %
#241000000
b110001 "
b110001 %
#242000000
b110010 "
b110010 %
#243000000
b110011 "
b110011 %
#244000000
b110100 "
b110100 %
#245000000
b110101 "
b110101 %
#246000000
b110110 "
b110110 %
#247000000
b110111 "
b110111 %
#248000000
b111000 "
b111000 %
#249000000
b111001 "
b111001 %
#250000000
b111010 "
b111010 %
#251000000
b111011 "
b111011 %
#252000000
b111100 "
b111100 %
#253000000
b111101 "
b111101 %
#254000000
b111110 "
b111110 %
#255000000
b111111 "
b111111 %
#256000000
b11 !
b000000 "
b11 $
b000000 %
#257000000
b000001 "
1#
b000001 %
1&
#258000000
b000010 "
0#
b000010 %
0&
#259000000
b000011 "
Z#
b000011 %
Z&
#260000000
b000100 "
1#
b000100 %
1&
#261000000
b000101 "
Z#
b000101 %
Z&
#262000000
b000110 "
b000110 %
#263000000
b000111 "
b000111 %
#264000000
b001000 "
0#
b001000 %
0&
#265000000
b001001 "
Z#
b001001 %
Z&
#266000000
b001010 "
b001010 %
#267000000
b001011 "
b001011 %
#268000000
b001100 "
b001100 %
#269000000
b001101 "
b001101 %
#270000000
b001110 "
b001110 %
#271000000
b001111 "
b001111 %
#272000000
b010000 "
0#
b010000 %
0&
#273000000
b010001 "
Z#
b010001 %
Z&
#274000000
b010010 "
b010010 %
#275000000
b010011 "
b010011 %
#276000000
b010100 "
b010100 %
#277000000
b010101 "
b010101 %
#278000000
b010110 "
b010110 %
#279000000
b010111 "
b010111 %
#280000000
b011000 "
b011000 %
#281000000
b011001 "
b011001 %
#282000000
b011010 "
b011010 %
#283000000
b011011 "
b011011 %
#284000000
b011100 "
b011100 %
#285000000
b011101 "
b011101 %
#286000000
b011110 "
b011110 %
#287000000
b011111 "
b011111 %
#288000000
b100000 "
1#
b100000 %
1&
#289000000
b100001 "
Z#
b100001 %
Z&
#290000000
b100010 "
b100010 %
#291000000
b100011 "
b100011 %
#292000000
b100100 "
b100100 %
#293000000
b100101 "
b100101 %
#294000000
b100110 "
b100110 %
#295000000
b100111 "
b100111 %
#296000000
b101000 "
b101000 %
#297000000
b101001 "
b101001 %
#298000000
b101010 "
b101010 %
#299000000
b101011 "
b101011 %
#300000000
b101100 "
b101100 %
#301000000
b101101 "
b101101 %
#302000000
b101110 "
b101110 %
#303000000
b101111 "
b101111 %
#304000000
b110000 "
b110000 %
#305000000
b110001 "
b110001 %
#306000000
b110010 "
b110010 %
#307000000
b110011 "
b110011 %
#308000000
b110100 "
b110100 %
#309000000
b110101 "
b110101 %
#310000000
b110110 "
b110110 %
#311000000
b110111 "
b110111 %
#312000000
b111000 "
b111000 %
#313000000
b111001 "
b111001 %
#314000000
b111010 "
b111010 %
#315000000
b111011 "
b111011 %
#316000000
b111100 "
b111100 %
#317000000
b111101 "
b111101 %
#318000000
b111110 "
b111110 %
#319000000
b111111 "
b111111 %
#320000000
bXX !
b000000 "
bXX $
b000000 %
#321000000
b000001 "
X#
b000001 %
X&
#322000000
b000010 "
b000010 %
#323000000
b000011 "
Z#
b000011 %
Z&
#324000000
b000100 "
X#
b000100 %
X&
#325000000
b000101 "
Z#
b000101 %
Z&
#326000000
b000110 "
b000110 %
#327000000
b000111 "
b000111 %
#328000000
b001000 "
X#
b001000 %
X&
#329000000
b001001 "
Z#
b001001 %
Z&
#330000000
b001010 "
b001010 %
#331000000
b001011 "
b001011 %
#332000000
b001100 "
b001100 %
#333000000
b001101 "
b001101 %
#334000000
b001110 "
b001110 %
#335000000
b001111 "
b001111 %
#336000000
b010000 "
X#
b010000 %
X&
#337000000
b010001 "
Z#
b010001 %
Z&
#338000000
b010010 "
b010010 %
#339000000
b010011 "
b010011 %
#340000000
b010100 "
b010100 %
#341000000
b010101 "
b010101 %
#342000000
b010110 "
b010110 %
#343000000
b010111 "
b010111 %
#344000000
b011000 "
b011000 %
#345000000
b011001 "
b011001 %
#346000000
b011010 "
b011010 %
#347000000
b011011 "
b011011 %
#348000000
b011100 "
b011100 %
#349000000
b011101 "
b011101 %
#350000000
b011110 "
b011110 %
#351000000
b011111 "
b011111 %
#352000000
b100000 "
X#
b100000 %
X&
#353000000
b100001 "
Z#
b100001 %
Z&
#354000000
b100010 "
b100010 %
#355000000
b100011 "
b100011 %
#356000000
b100100 "
b100100 %
#357000000
b100101 "
b100101 %
#358000000
b100110 "
b100110 %
#359000000
b100111 "
b100111 %
#360000000
b101000 "
b101000 %
#361000000
b101001 "
b101001 %
#362000000
b101010 "
b101010 %
#363000000
b101011 "
b101011 %
#364000000
b101100 "
b101100 %
#365000000
b101101 "
b101101 %
#366000000
b101110 "
b101110 %
#367000000
b101111 "
b101111 %
#368000000
b110000 "
b110000 %
#369000000
b110001 "
b110001 %
#370000000
b110010 "
b110010 %
#371000000
b110011 "
b110011 %
#372000000
b110100 "
b110100 %
#373000000
b110101 "
b110101 %
#374000000
b110110 "
b110110 %
#375000000
b110111 "
b110111 %
#376000000
b111000 "
b111000 %
#377000000
b111001 "
b111001 %
#378000000
b111010 "
b111010 %
#379000000
b111011 "
b111011 %
#380000000
b111100 "
b111100 %
#381000000
b111101 "
b111101 %
#382000000
b111110 "
b111110 %
#383000000
b111111 "
b111111 %
